Chapter 2 SERS Elfiskeregistret | Riskvatten
…
# Group the data by site and merge unique species names and their counts
df3 <- df2 %>% group_by(XKOORLOK, YKOORLOK, vdragnam, s99tm_n, s99tm_e, ddlat, ddlong) %>% 
  summarize(
    # Concatenate unique species names into a single string
    all_sp = str_c(unique(unlist(str_split(species_names, ", "))[nzchar(unique(unlist(str_split(species_names, ", "))))]), collapse = ", "),
    # Count the number of unique species names
    no_sp = length(unique(unlist(str_split(species_names, ", "))[nzchar(unique(unlist(str_split(species_names, ", "))))])))

## `summarise()` has grouped output by 'XKOORLOK', 'YKOORLOK', 'vdragnam',
## 's99tm_n', 's99tm_e', 'ddlat'. You can override using the `.groups` argument.

df3

## # A tibble: 21,437 × 9
## # Groups:   XKOORLOK, YKOORLOK, vdragnam, s99tm_n, s99tm_e, ddlat [21,437]
##    XKOORLOK YKOORLOK vdragnam          s99tm_n s99tm_e ddlat ddlong all_sp no_sp
##       <dbl>    <dbl> <chr>               <dbl>   <dbl> <dbl>  <dbl> <chr>  <int>
##  1   613826   134663 Sänkebäck         6134957  397743  55.4   13.4 Småsp…     7
##  2   613967   133652 Bäck vid Gislövs… 6136249  387623  55.4   13.2 Småsp…     2
##  3   614032   133490 Dalköpingeån      6136880  385996  55.4   13.2 Småsp…     5
##  4   614041   133498 Dalköpingeån      6136971  386075  55.4   13.2 Småsp…     2
##  5   614046   133504 Dalköpingeån      6137022  386135  55.4   13.2 Småsp…     2
##  6   614088   135105 Bäck 2 km V Skat… 6137627  402130  55.4   13.5 Småsp…     1
##  7   614096   139489 Tyge å            6138214  445942  55.4   14.1 Ål         1
##  8   614136   135264 Tullstorpsån      6138125  403713  55.4   13.5 Småsp…     3
##  9   614160   133541 Dalköpingeån      6138165  386491  55.4   13.2 Småsp…     1
## 10   614170   134900 Tullstorpsån      6138422  400071  55.4   13.4 Ål, S…     5
## # ℹ 21,427 more rows
…
